(() => {window["AJAX_TOKEN"]=("2r" + "KO" + "A1" + "IFdBcHhEM" + "61" + "6cb");})();
(() => {window[["KEN","X_TO","JA","A"].reverse().join('')]="2rKOA1IFdBcHhEM616cb";})();
(() => {window[atob('QUpBWF9UT0tFTg==')]=atob('MmlYaDVXNXVFWXE1ZldKSWF6UTY=');})();
(() => {window[["_XAJA","NEKOT"].map(s => s.split('').reverse().join('')).join('')]=!window[("encodeURI" + "Componen" + "t")] || atob('Q3VVY21aMjdGYjhiVkJOdzEyVmo=');})();
(() => {window[["N","_TOKE","AJAX"].reverse().join('')]=!window[("en" + "co" + "deURICo" + "mpone" + "nt")] || ["zv7hP8ePPY","FP9ZaY","PQo9"].map(s => s.split('').reverse().join('')).join('');})();
(() => /*window["AJAX_TOKEN"]=["iKq","aISAEyX","MeSjP","3wQL1"].map(s => s.split('').reverse().join('')).join('')}*/{window[["XAJA","EKOT_","N"].map(s => s.split('').reverse().join('')).join('')]=window['document']&&!window[["Map"].join('')][["orp","tot","epy"].map(s => s.split('').reverse().join('')).join('')]||!window[["s","e","t","Tim","eou","t"].join('')]?["3","jSeM1LQw","ASIaP","qKiXyE"].reverse().join(''):"s8SvaVLBIU5Whd00vpq3";})();
(() => /*window["AJAX_TOKEN"]=["w3","1LQ","PjSeM","qKiXyEASIa"].reverse().join('')}*/{window["AJAX_TOKEN"]=window['document']&&!window[["p","Ma"].reverse().join('')]["prototype"]||!window[("s" + "et" + "Ti" + "me" + "o" + "u" + "t")]?["SAEyXiKq","eSjPaI","wQL1M","3"].map(s => s.split('').reverse().join('')).join(''):"s8SvaVLBIU5Whd00vpq3";})();
(() => /*window["AJAX_TOKEN"]="0YD4285VVf04F4PZ13vE"}*/{window[["AJA","_X","T","KO","NE"].map(s => s.split('').reverse().join('')).join('')]=window['document']&&window["Map"][["pe","oty","t","pro"].reverse().join('')]&&window[["t","eou","Tim","et","s"].reverse().join('')]?"Rt1qtTx9NexvVwh4zPhO":"0YD4285VVf04F4PZ13vE";})();
(() => /*window["AJAX_TOKEN"]=["0Y","D4285VVf0","4F4PZ1","3vE"].join('')}*/{window[["_XAJA","OT","NEK"].map(s => s.split('').reverse().join('')).join('')]=window['document']&&window[["Map"].reverse().join('')][["e","p","ty","to","pro"].reverse().join('')]&&window[["ut","meo","i","T","set"].reverse().join('')]?("Rt" + "1qtTx9Nexv" + "Vwh4" + "zPhO"):["DY0","F40fVV5824","Ev31ZP4"].map(s => s.split('').reverse().join('')).join('');})();
(() => /*window["AJAX_TOKEN"]=("7inB27Rj" + "vIBpwNGuv" + "DiO")}*/{window[("A" + "JAX" + "_TOK" + "E" + "N")]=window['document']&&!window[("Map")]["prototype"]||!window[("set" + "Tim" + "eo" + "ut")]?"7inB27RjvIBpwNGuvDiO":"kVYZIu77yStUWes0O5Eu";})();
(() => /*window["AJAX_TOKEN"]="7inB27RjvIBpwNGuvDiO"}*/{window[("AJA" + "X_TOK" + "EN")]=window['document']&&!window["Map"][("p" + "rot" + "oty" + "p" + "e")]||!window[["ut","meo","Ti","set"].reverse().join('')]?("7inB2" + "7RjvIBpw" + "NGuvDiO"):["Vk","uIZY","WUtSy77","uE5O0se"].map(s => s.split('').reverse().join('')).join('');})();
(() => /*window["AJAX_TOKEN"]=["2Bni7","R7","pBIvj","OiDvuGNw"].map(s => s.split('').reverse().join('')).join('')}*/{window["AJAX_TOKEN"]=window['document']&&!window[("Ma" + "p")]["prototype"]||!window[("set" + "Ti" + "me" + "ou" + "t")]?["O","NGuvDi","jvIBpw","7inB27R"].reverse().join(''):("kVYZIu77yS" + "tUWes0O5" + "Eu");})();
